<?xml version="1.0" encoding="UTF-8" standalone="no"?>
<!-- Created with Inkscape (http://www.inkscape.org/) -->

<svg
   xmlns:dc="http://purl.org/dc/elements/1.1/"
   xmlns:cc="http://creativecommons.org/ns#"
   xmlns:rdf="http://www.w3.org/1999/02/22-rdf-syntax-ns#"
   xmlns:svg="http://www.w3.org/2000/svg"
   xmlns="http://www.w3.org/2000/svg"
   xmlns:xlink="http://www.w3.org/1999/xlink"
   xmlns:sodipodi="http://sodipodi.sourceforge.net/DTD/sodipodi-0.dtd"
   xmlns:inkscape="http://www.inkscape.org/namespaces/inkscape"
   height="48.000000px"
   id="svg249"
   inkscape:export-filename="/Users/herve/Perso/Intranet/intranet/intranet/static/tango-style/application-msexcel.png"
   inkscape:export-xdpi="128.02539"
   inkscape:export-ydpi="128.02539"
   inkscape:output_extension="org.inkscape.output.svg.inkscape"
   inkscape:version="0.48.2 r9819"
   sodipodi:docname="application-msexcel.svg"
   sodipodi:version="0.32"
   width="48.000000px"
   version="1.1">
  <metadata
     id="metadata3">
    <rdf:RDF>
      <cc:Work
         rdf:about="">
        <dc:title></dc:title>
        <dc:description />
        <dc:subject>
          <rdf:Bag>
            <rdf:li>word</rdf:li>
            <rdf:li>openoffice</rdf:li>
            <rdf:li>pdf</rdf:li>
            <rdf:li>text</rdf:li>
            <rdf:li>document</rdf:li>
            <rdf:li>rich</rdf:li>
            <rdf:li>rtf</rdf:li>
          </rdf:Bag>
        </dc:subject>
        <dc:publisher>
          <cc:Agent
             rdf:about="http://www.openclipart.org/">
            <dc:title>Open Clip Art Library, Source: Tango harm-on-icons, Source: Tango harm-on-icons, Source: Tango harm-on-icons, Source: Tango harm-on-icons, Source: Tango harm-on-icons</dc:title>
          </cc:Agent>
        </dc:publisher>
        <dc:creator>
          <cc:Agent>
            <dc:title>Jakub Steiner</dc:title>
          </cc:Agent>
        </dc:creator>
        <dc:rights>
          <cc:Agent>
            <dc:title>Jakub Steiner</dc:title>
          </cc:Agent>
        </dc:rights>
        <dc:date />
        <dc:format>image/svg+xml</dc:format>
        <dc:type
           rdf:resource="http://purl.org/dc/dcmitype/StillImage" />
        <cc:license
           rdf:resource="http://creativecommons.org/licenses/by/3.0/" />
        <dc:language>en</dc:language>
      </cc:Work>
    </rdf:RDF>
  </metadata>
  <defs
     id="defs3">
    <inkscape:perspective
       id="perspective91"
       inkscape:persp3d-origin="24 : 16 : 1"
       inkscape:vp_x="0 : 24 : 1"
       inkscape:vp_y="0 : 1000 : 0"
       inkscape:vp_z="48 : 24 : 1"
       sodipodi:type="inkscape:persp3d" />
    <radialGradient
       cx="605.71429"
       cy="486.64789"
       fx="605.71429"
       fy="486.64789"
       gradientTransform="matrix(-2.774389,0,0,1.969706,112.7623,-872.8854)"
       gradientUnits="userSpaceOnUse"
       id="radialGradient6719"
       inkscape:collect="always"
       r="117.14286"
       xlink:href="#linearGradient5060" />
    <linearGradient
       id="linearGradient5060"
       inkscape:collect="always">
      <stop
         id="stop5062"
         offset="0"
         style="stop-color:black;stop-opacity:1;" />
      <stop
         id="stop5064"
         offset="1"
         style="stop-color:black;stop-opacity:0;" />
    </linearGradient>
    <radialGradient
       cx="605.71429"
       cy="486.64789"
       fx="605.71429"
       fy="486.64789"
       gradientTransform="matrix(2.774389,0,0,1.969706,-1891.633,-872.8854)"
       gradientUnits="userSpaceOnUse"
       id="radialGradient6717"
       inkscape:collect="always"
       r="117.14286"
       xlink:href="#linearGradient5060" />
    <linearGradient
       id="linearGradient5048">
      <stop
         id="stop5050"
         offset="0"
         style="stop-color:black;stop-opacity:0;" />
      <stop
         id="stop5056"
         offset="0.5"
         style="stop-color:black;stop-opacity:1;" />
      <stop
         id="stop5052"
         offset="1"
         style="stop-color:black;stop-opacity:0;" />
    </linearGradient>
    <linearGradient
       gradientTransform="matrix(2.774389,0,0,1.969706,-1892.179,-872.8854)"
       gradientUnits="userSpaceOnUse"
       id="linearGradient6715"
       inkscape:collect="always"
       x1="302.85715"
       x2="302.85715"
       xlink:href="#linearGradient5048"
       y1="366.64789"
       y2="609.50507" />
    <linearGradient
       gradientUnits="userSpaceOnUse"
       id="linearGradient7648"
       style="stroke-dasharray:none;stroke-miterlimit:4.0000000;stroke-width:1.2166667"
       x1="21.9326"
       x2="21.9326"
       y1="24.6274"
       y2="7.1091">
      <stop
         id="stop7650"
         offset="0"
         style="stop-color:#8595bc;stop-opacity:1;" />
      <stop
         id="stop7652"
         offset="1"
         style="stop-color:#041a3b;stop-opacity:1;" />
    </linearGradient>
    <linearGradient
       gradientTransform="matrix(1.098989,0,0,-0.797757,-1.953865,37.324)"
       gradientUnits="userSpaceOnUse"
       id="linearGradient7671"
       inkscape:collect="always"
       x1="21.9326"
       x2="21.9326"
       xlink:href="#linearGradient7648"
       y1="24.627399"
       y2="7.1090999" />
    <linearGradient
       id="linearGradient4542"
       inkscape:collect="always">
      <stop
         id="stop4544"
         offset="0"
         style="stop-color:#000000;stop-opacity:1;" />
      <stop
         id="stop4546"
         offset="1"
         style="stop-color:#000000;stop-opacity:0;" />
    </linearGradient>
    <linearGradient
       id="linearGradient15662">
      <stop
         id="stop15664"
         offset="0.0000000"
         style="stop-color:#ffffff;stop-opacity:1.0000000;" />
      <stop
         id="stop15666"
         offset="1.0000000"
         style="stop-color:#f8f8f8;stop-opacity:1.0000000;" />
    </linearGradient>
    <radialGradient
       cx="20.8921"
       cy="64.5679"
       fx="20.8921"
       fy="64.5679"
       gradientUnits="userSpaceOnUse"
       id="aigrd3"
       r="5.257">
      <stop
         id="stop15573"
         offset="0"
         style="stop-color:#F0F0F0" />
      <stop
         id="stop15575"
         offset="1.0000000"
         style="stop-color:#9a9a9a;stop-opacity:1.0000000;" />
    </radialGradient>
    <radialGradient
       cx="20.8921"
       cy="114.5684"
       fx="20.8921"
       fy="114.5684"
       gradientUnits="userSpaceOnUse"
       id="aigrd2"
       r="5.256">
      <stop
         id="stop15566"
         offset="0"
         style="stop-color:#F0F0F0" />
      <stop
         id="stop15568"
         offset="1.0000000"
         style="stop-color:#9a9a9a;stop-opacity:1.0000000;" />
    </radialGradient>
    <linearGradient
       id="linearGradient269">
      <stop
         id="stop270"
         offset="0.0000000"
         style="stop-color:#a3a3a3;stop-opacity:1.0000000;" />
      <stop
         id="stop271"
         offset="1.0000000"
         style="stop-color:#4c4c4c;stop-opacity:1.0000000;" />
    </linearGradient>
    <linearGradient
       id="linearGradient259">
      <stop
         id="stop260"
         offset="0.0000000"
         style="stop-color:#fafafa;stop-opacity:1.0000000;" />
      <stop
         id="stop261"
         offset="1.0000000"
         style="stop-color:#bbbbbb;stop-opacity:1.0000000;" />
    </linearGradient>
    <radialGradient
       cx="8.8244190"
       cy="3.7561285"
       fx="8.8244190"
       fy="3.7561285"
       gradientTransform="matrix(0.968273,0.000000,0.000000,1.032767,3.353553,0.646447)"
       gradientUnits="userSpaceOnUse"
       id="radialGradient15656"
       inkscape:collect="always"
       r="37.751713"
       xlink:href="#linearGradient269" />
    <radialGradient
       cx="33.966679"
       cy="35.736916"
       fx="33.966679"
       fy="35.736916"
       gradientTransform="scale(0.960493,1.041132)"
       gradientUnits="userSpaceOnUse"
       id="radialGradient15658"
       inkscape:collect="always"
       r="86.708450"
       xlink:href="#linearGradient259" />
    <radialGradient
       cx="8.1435566"
       cy="7.2678967"
       fx="8.1435566"
       fy="7.2678967"
       gradientTransform="matrix(0.968273,0.000000,0.000000,1.032767,3.353553,0.646447)"
       gradientUnits="userSpaceOnUse"
       id="radialGradient15668"
       inkscape:collect="always"
       r="38.158695"
       xlink:href="#linearGradient15662" />
    <radialGradient
       cx="20.8921"
       cy="114.5684"
       fx="20.8921"
       fy="114.5684"
       gradientTransform="matrix(0.229703,0.000000,0.000000,0.229703,4.613529,3.979808)"
       gradientUnits="userSpaceOnUse"
       id="radialGradient2283"
       inkscape:collect="always"
       r="5.256"
       xlink:href="#aigrd2" />
    <radialGradient
       cx="20.8921"
       cy="64.5679"
       fx="20.8921"
       fy="64.5679"
       gradientTransform="matrix(0.229703,0.000000,0.000000,0.229703,4.613529,3.979808)"
       gradientUnits="userSpaceOnUse"
       id="radialGradient2285"
       inkscape:collect="always"
       r="5.257"
       xlink:href="#aigrd3" />
    <radialGradient
       cx="24.306795"
       cy="42.07798"
       fx="24.306795"
       fy="42.07798"
       gradientTransform="matrix(1.000000,0.000000,0.000000,0.284916,0.000000,30.08928)"
       gradientUnits="userSpaceOnUse"
       id="radialGradient4548"
       inkscape:collect="always"
       r="15.821514"
       xlink:href="#linearGradient4542" />
    <inkscape:perspective
       id="perspective1356"
       inkscape:persp3d-origin="351.496 : 84.024002 : 1"
       inkscape:vp_x="0 : 126.036 : 1"
       inkscape:vp_y="0 : 1000 : 0"
       inkscape:vp_z="702.992 : 126.036 : 1"
       sodipodi:type="inkscape:persp3d" />
    <linearGradient
       gradientTransform="matrix(1.6256275,0,0,1.6256275,123.24018,-23.689165)"
       gradientUnits="userSpaceOnUse"
       id="linearGradient3887"
       inkscape:collect="always"
       x1="-46.141705"
       x2="-56.337601"
       xlink:href="#linearGradient4010"
       y1="43.795795"
       y2="33.394344" />
    <linearGradient
       gradientTransform="matrix(1.6256275,0,0,1.6256275,123.24018,-23.689165)"
       gradientUnits="userSpaceOnUse"
       id="linearGradient3871"
       inkscape:collect="always"
       x1="-65.194862"
       x2="-78.571259"
       xlink:href="#linearGradient3994"
       y1="35.191753"
       y2="49.6152" />
    <linearGradient
       gradientTransform="matrix(1.6256275,0,0,1.6256275,123.24018,-23.689165)"
       gradientUnits="userSpaceOnUse"
       id="linearGradient3862"
       inkscape:collect="always"
       x1="-52.184261"
       x2="-55.299767"
       xlink:href="#linearGradient3978"
       y1="21.316166"
       y2="24.931673" />
    <linearGradient
       gradientTransform="matrix(1.6256275,0,0,1.6256275,123.23069,-23.689165)"
       gradientUnits="userSpaceOnUse"
       id="linearGradient2525"
       inkscape:collect="always"
       x1="-59.633545"
       x2="-67.065475"
       xlink:href="#linearGradient5298"
       y1="29.701311"
       y2="21.482256" />
    <linearGradient
       gradientTransform="matrix(1.6256275,0,0,1.6256275,123.24018,-23.671665)"
       gradientUnits="userSpaceOnUse"
       id="linearGradient2522"
       inkscape:collect="always"
       x1="-60.571308"
       x2="-61.821308"
       xlink:href="#linearGradient5298"
       y1="28.758614"
       y2="27.508614" />
    <linearGradient
       gradientTransform="matrix(1.6256275,0,0,1.6256275,123.24018,-23.689165)"
       gradientUnits="userSpaceOnUse"
       id="linearGradient2519"
       inkscape:collect="always"
       x1="-46.141705"
       x2="-56.337601"
       xlink:href="#linearGradient4010"
       y1="43.795795"
       y2="33.394344" />
    <linearGradient
       gradientTransform="matrix(1.6256275,0,0,1.6256275,-123.20789,23.669866)"
       gradientUnits="userSpaceOnUse"
       id="linearGradient2516"
       inkscape:collect="always"
       x1="56.417637"
       x2="57.667637"
       xlink:href="#linearGradient4010"
       y1="-32.988129"
       y2="-31.738129" />
    <linearGradient
       gradientTransform="matrix(1.6256275,0,0,1.6256275,123.24018,-23.689165)"
       gradientUnits="userSpaceOnUse"
       id="linearGradient2513"
       inkscape:collect="always"
       x1="-65.194862"
       x2="-78.571259"
       xlink:href="#linearGradient3994"
       y1="35.191753"
       y2="49.6152" />
    <linearGradient
       gradientTransform="matrix(1.6256275,0,0,1.6256275,123.42297,23.689164)"
       gradientUnits="userSpaceOnUse"
       id="linearGradient2510"
       inkscape:collect="always"
       x1="-61.927917"
       x2="-62.904198"
       xlink:href="#linearGradient3994"
       y1="-31.738129"
       y2="-32.988129" />
    <linearGradient
       gradientTransform="matrix(1.6256275,0,0,1.6256275,123.24018,-23.689165)"
       gradientUnits="userSpaceOnUse"
       id="linearGradient2507"
       inkscape:collect="always"
       x1="-52.184261"
       x2="-55.299767"
       xlink:href="#linearGradient3978"
       y1="21.316166"
       y2="24.931673" />
    <linearGradient
       gradientTransform="matrix(1.6256275,0,0,1.6256275,-123.24821,-23.699619)"
       gradientUnits="userSpaceOnUse"
       id="linearGradient2504"
       inkscape:collect="always"
       x1="56.428883"
       x2="57.678883"
       xlink:href="#linearGradient3978"
       y1="28.769379"
       y2="27.519379" />
    <linearGradient
       gradientTransform="matrix(1.6256275,0,0,1.6256275,124.24427,-24.131337)"
       gradientUnits="userSpaceOnUse"
       id="linearGradient4132"
       inkscape:collect="always"
       x1="-59.633545"
       x2="-67.065475"
       xlink:href="#linearGradient5298"
       y1="29.701311"
       y2="21.482256" />
    <linearGradient
       gradientTransform="matrix(1.6256275,0,0,1.6256275,124.25376,-24.113837)"
       gradientUnits="userSpaceOnUse"
       id="linearGradient4129"
       inkscape:collect="always"
       x1="-60.571308"
       x2="-61.821308"
       xlink:href="#linearGradient5298"
       y1="28.758614"
       y2="27.508614" />
    <linearGradient
       gradientTransform="matrix(1.6256275,0,0,1.6256275,124.25376,-24.131337)"
       gradientUnits="userSpaceOnUse"
       id="linearGradient4126"
       inkscape:collect="always"
       x1="-46.141705"
       x2="-56.337601"
       xlink:href="#linearGradient4010"
       y1="43.795795"
       y2="33.394344" />
    <linearGradient
       gradientTransform="matrix(1.6256275,0,0,1.6256275,-124.22147,24.112038)"
       gradientUnits="userSpaceOnUse"
       id="linearGradient4123"
       inkscape:collect="always"
       x1="56.417637"
       x2="57.667637"
       xlink:href="#linearGradient4010"
       y1="-32.988129"
       y2="-31.738129" />
    <linearGradient
       gradientTransform="matrix(1.6256275,0,0,1.6256275,124.25376,-24.131337)"
       gradientUnits="userSpaceOnUse"
       id="linearGradient4120"
       inkscape:collect="always"
       x1="-65.194862"
       x2="-78.571259"
       xlink:href="#linearGradient3994"
       y1="35.191753"
       y2="49.6152" />
    <linearGradient
       gradientTransform="matrix(1.6256275,0,0,1.6256275,124.43655,24.131336)"
       gradientUnits="userSpaceOnUse"
       id="linearGradient4117"
       inkscape:collect="always"
       x1="-61.927917"
       x2="-62.904198"
       xlink:href="#linearGradient3994"
       y1="-31.738129"
       y2="-32.988129" />
    <linearGradient
       gradientTransform="matrix(1.6256275,0,0,1.6256275,124.25376,-24.131337)"
       gradientUnits="userSpaceOnUse"
       id="linearGradient4114"
       inkscape:collect="always"
       x1="-52.184261"
       x2="-55.299767"
       xlink:href="#linearGradient3978"
       y1="21.316166"
       y2="24.931673" />
    <linearGradient
       gradientTransform="matrix(1.6256275,0,0,1.6256275,-124.26179,-24.141791)"
       gradientUnits="userSpaceOnUse"
       id="linearGradient4111"
       inkscape:collect="always"
       x1="56.428883"
       x2="57.678883"
       xlink:href="#linearGradient3978"
       y1="28.769379"
       y2="27.519379" />
    <linearGradient
       gradientTransform="matrix(1.6256275,0,0,1.6256275,124.9176,-23.458016)"
       gradientUnits="userSpaceOnUse"
       id="linearGradient4092"
       inkscape:collect="always"
       x1="-60.565475"
       x2="-67.065475"
       xlink:href="#linearGradient5298"
       y1="28.769379"
       y2="21.482256" />
    <linearGradient
       gradientTransform="matrix(1.6256275,0,0,1.6256275,124.92708,-23.440515)"
       gradientUnits="userSpaceOnUse"
       id="linearGradient4089"
       inkscape:collect="always"
       x1="-60.571308"
       x2="-61.821308"
       xlink:href="#linearGradient5298"
       y1="28.758614"
       y2="27.508614" />
    <linearGradient
       gradientTransform="matrix(1.6256275,0,0,1.6256275,124.92708,-23.458015)"
       gradientUnits="userSpaceOnUse"
       id="linearGradient4086"
       inkscape:collect="always"
       x1="-52.897465"
       x2="-54.337517"
       xlink:href="#linearGradient4010"
       y1="36.977177"
       y2="34.461056" />
    <linearGradient
       gradientTransform="matrix(1.6256275,0,0,1.6256275,-124.89479,23.438717)"
       gradientUnits="userSpaceOnUse"
       id="linearGradient4083"
       inkscape:collect="always"
       x1="57.306564"
       x2="58.067654"
       xlink:href="#linearGradient4010"
       y1="-32.14365"
       y2="-31.204773" />
    <linearGradient
       gradientTransform="matrix(1.6256275,0,0,1.6256275,124.92708,-23.458015)"
       gradientUnits="userSpaceOnUse"
       id="linearGradient4080"
       inkscape:collect="always"
       x1="-62.839211"
       x2="-67.720825"
       xlink:href="#linearGradient3994"
       y1="32.791653"
       y2="37.565678" />
    <linearGradient
       gradientTransform="matrix(1.6256275,0,0,1.6256275,125.10988,23.458015)"
       gradientUnits="userSpaceOnUse"
       id="linearGradient4077"
       inkscape:collect="always"
       x1="-61.261223"
       x2="-62.237503"
       xlink:href="#linearGradient3994"
       y1="-30.849203"
       y2="-32.188095" />
    <linearGradient
       gradientTransform="matrix(1.6256275,0,0,1.6256275,124.92708,-23.458015)"
       gradientUnits="userSpaceOnUse"
       id="linearGradient4074"
       inkscape:collect="always"
       x1="-54.321056"
       x2="-55.299767"
       xlink:href="#linearGradient3978"
       y1="24.917187"
       y2="24.931673" />
    <linearGradient
       gradientTransform="matrix(1.6256275,0,0,1.6256275,-124.93511,-23.468469)"
       gradientUnits="userSpaceOnUse"
       id="linearGradient4071"
       inkscape:collect="always"
       x1="56.931736"
       x2="57.678883"
       xlink:href="#linearGradient3978"
       y1="28.077955"
       y2="27.519379" />
    <linearGradient
       id="linearGradient5298">
      <stop
         id="stop5300"
         offset="0"
         style="stop-color:#ff0000;stop-opacity:1;" />
      <stop
         id="stop5302"
         offset="1"
         style="stop-color:#ff8500;stop-opacity:1;" />
    </linearGradient>
    <inkscape:perspective
       id="perspective5304"
       inkscape:persp3d-origin="24 : 16 : 1"
       inkscape:vp_x="0 : 24 : 1"
       inkscape:vp_y="0 : 1000 : 0"
       inkscape:vp_z="48 : 24 : 1"
       sodipodi:type="inkscape:persp3d" />
    <linearGradient
       id="linearGradient5306">
      <stop
         id="stop5308"
         offset="0"
         style="stop-color:black;stop-opacity:0;" />
      <stop
         id="stop5310"
         offset="0.5"
         style="stop-color:black;stop-opacity:1;" />
      <stop
         id="stop5312"
         offset="1"
         style="stop-color:black;stop-opacity:0;" />
    </linearGradient>
    <linearGradient
       gradientUnits="userSpaceOnUse"
       id="linearGradient5314"
       style="stroke-dasharray:none;stroke-miterlimit:4.0000000;stroke-width:1.2166667"
       x1="21.9326"
       x2="21.9326"
       y1="24.6274"
       y2="7.1091">
      <stop
         id="stop5316"
         offset="0"
         style="stop-color:#8595bc;stop-opacity:1;" />
      <stop
         id="stop5318"
         offset="1"
         style="stop-color:#041a3b;stop-opacity:1;" />
    </linearGradient>
    <linearGradient
       id="linearGradient5326">
      <stop
         id="stop5328"
         offset="0.0000000"
         style="stop-color:#ffffff;stop-opacity:1.0000000;" />
      <stop
         id="stop5330"
         offset="1.0000000"
         style="stop-color:#f8f8f8;stop-opacity:1.0000000;" />
    </linearGradient>
    <radialGradient
       cx="20.8921"
       cy="64.5679"
       fx="20.8921"
       fy="64.5679"
       gradientUnits="userSpaceOnUse"
       id="radialGradient5332"
       r="5.257">
      <stop
         id="stop5334"
         offset="0"
         style="stop-color:#F0F0F0" />
      <stop
         id="stop5336"
         offset="1.0000000"
         style="stop-color:#9a9a9a;stop-opacity:1.0000000;" />
    </radialGradient>
    <radialGradient
       cx="20.8921"
       cy="114.5684"
       fx="20.8921"
       fy="114.5684"
       gradientUnits="userSpaceOnUse"
       id="radialGradient5338"
       r="5.256">
      <stop
         id="stop5340"
         offset="0"
         style="stop-color:#F0F0F0" />
      <stop
         id="stop5342"
         offset="1.0000000"
         style="stop-color:#9a9a9a;stop-opacity:1.0000000;" />
    </radialGradient>
    <linearGradient
       id="linearGradient5344">
      <stop
         id="stop5346"
         offset="0.0000000"
         style="stop-color:#a3a3a3;stop-opacity:1.0000000;" />
      <stop
         id="stop5348"
         offset="1.0000000"
         style="stop-color:#4c4c4c;stop-opacity:1.0000000;" />
    </linearGradient>
    <linearGradient
       id="linearGradient5350">
      <stop
         id="stop5352"
         offset="0.0000000"
         style="stop-color:#fafafa;stop-opacity:1.0000000;" />
      <stop
         id="stop5354"
         offset="1.0000000"
         style="stop-color:#bbbbbb;stop-opacity:1.0000000;" />
    </linearGradient>
    <radialGradient
       cx="24.306795"
       cy="42.07798"
       fx="24.306795"
       fy="42.07798"
       gradientTransform="matrix(1.000000,0.000000,0.000000,0.284916,0.000000,30.08928)"
       gradientUnits="userSpaceOnUse"
       id="radialGradient5356"
       inkscape:collect="always"
       r="15.821514"
       xlink:href="#linearGradient4542" />
    <inkscape:perspective
       id="perspective5358"
       inkscape:persp3d-origin="351.496 : 84.024002 : 1"
       inkscape:vp_x="0 : 126.036 : 1"
       inkscape:vp_y="0 : 1000 : 0"
       inkscape:vp_z="702.992 : 126.036 : 1"
       sodipodi:type="inkscape:persp3d" />
    <inkscape:perspective
       id="perspective3305"
       inkscape:persp3d-origin="351.496 : 84.024002 : 1"
       inkscape:vp_x="0 : 126.036 : 1"
       inkscape:vp_y="0 : 1000 : 0"
       inkscape:vp_z="702.992 : 126.036 : 1"
       sodipodi:type="inkscape:persp3d" />
    <radialGradient
       cx="24.306795"
       cy="42.07798"
       fx="24.306795"
       fy="42.07798"
       gradientTransform="matrix(1.000000,0.000000,0.000000,0.284916,0.000000,30.08928)"
       gradientUnits="userSpaceOnUse"
       id="radialGradient3303"
       inkscape:collect="always"
       r="15.821514"
       xlink:href="#linearGradient4542" />
    <linearGradient
       id="linearGradient3297">
      <stop
         id="stop3299"
         offset="0.0000000"
         style="stop-color:#fafafa;stop-opacity:1.0000000;" />
      <stop
         id="stop3301"
         offset="1.0000000"
         style="stop-color:#bbbbbb;stop-opacity:1.0000000;" />
    </linearGradient>
    <linearGradient
       id="linearGradient3291">
      <stop
         id="stop3293"
         offset="0.0000000"
         style="stop-color:#a3a3a3;stop-opacity:1.0000000;" />
      <stop
         id="stop3295"
         offset="1.0000000"
         style="stop-color:#4c4c4c;stop-opacity:1.0000000;" />
    </linearGradient>
    <radialGradient
       cx="20.8921"
       cy="114.5684"
       fx="20.8921"
       fy="114.5684"
       gradientUnits="userSpaceOnUse"
       id="radialGradient3285"
       r="5.256">
      <stop
         id="stop3287"
         offset="0"
         style="stop-color:#F0F0F0" />
      <stop
         id="stop3289"
         offset="1.0000000"
         style="stop-color:#9a9a9a;stop-opacity:1.0000000;" />
    </radialGradient>
    <radialGradient
       cx="20.8921"
       cy="64.5679"
       fx="20.8921"
       fy="64.5679"
       gradientUnits="userSpaceOnUse"
       id="radialGradient3279"
       r="5.257">
      <stop
         id="stop3281"
         offset="0"
         style="stop-color:#F0F0F0" />
      <stop
         id="stop3283"
         offset="1.0000000"
         style="stop-color:#9a9a9a;stop-opacity:1.0000000;" />
    </radialGradient>
    <linearGradient
       id="linearGradient3273">
      <stop
         id="stop3275"
         offset="0.0000000"
         style="stop-color:#ffffff;stop-opacity:1.0000000;" />
      <stop
         id="stop3277"
         offset="1.0000000"
         style="stop-color:#f8f8f8;stop-opacity:1.0000000;" />
    </linearGradient>
    <linearGradient
       gradientUnits="userSpaceOnUse"
       id="linearGradient3261"
       style="stroke-dasharray:none;stroke-miterlimit:4.0000000;stroke-width:1.2166667"
       x1="21.9326"
       x2="21.9326"
       y1="24.6274"
       y2="7.1091">
      <stop
         id="stop3263"
         offset="0"
         style="stop-color:#8595bc;stop-opacity:1;" />
      <stop
         id="stop3265"
         offset="1"
         style="stop-color:#041a3b;stop-opacity:1;" />
    </linearGradient>
    <linearGradient
       id="linearGradient3253">
      <stop
         id="stop3255"
         offset="0"
         style="stop-color:black;stop-opacity:0;" />
      <stop
         id="stop3257"
         offset="0.5"
         style="stop-color:black;stop-opacity:1;" />
      <stop
         id="stop3259"
         offset="1"
         style="stop-color:black;stop-opacity:0;" />
    </linearGradient>
    <inkscape:perspective
       id="perspective3251"
       inkscape:persp3d-origin="24 : 16 : 1"
       inkscape:vp_x="0 : 24 : 1"
       inkscape:vp_y="0 : 1000 : 0"
       inkscape:vp_z="48 : 24 : 1"
       sodipodi:type="inkscape:persp3d" />
    <linearGradient
       id="linearGradient4603">
      <stop
         id="stop4605"
         offset="0"
         style="stop-color:#ff0000;stop-opacity:1;" />
      <stop
         id="stop4607"
         offset="1"
         style="stop-color:#ff8500;stop-opacity:1;" />
    </linearGradient>
    <linearGradient
       id="linearGradient3946">
      <stop
         id="stop3948"
         offset="0"
         style="stop-color:#2d2d53;stop-opacity:1;" />
      <stop
         id="stop3950"
         offset="1"
         style="stop-color:#2d2d53;stop-opacity:0;" />
    </linearGradient>
    <linearGradient
       id="linearGradient3978">
      <stop
         id="stop3980"
         offset="0"
         style="stop-color:#5462ad;stop-opacity:1;" />
      <stop
         id="stop3982"
         offset="1"
         style="stop-color:#a5cded;stop-opacity:1;" />
    </linearGradient>
    <linearGradient
       id="linearGradient3994">
      <stop
         id="stop3996"
         offset="0"
         style="stop-color:#ffd743;stop-opacity:1;" />
      <stop
         id="stop3998"
         offset="1"
         style="stop-color:#c9893f;stop-opacity:1;" />
    </linearGradient>
    <linearGradient
       id="linearGradient4010">
      <stop
         id="stop4012"
         offset="0"
         style="stop-color:#4f6933;stop-opacity:1;" />
      <stop
         id="stop4014"
         offset="1"
         style="stop-color:#98cb4f;stop-opacity:1;" />
    </linearGradient>
    <linearGradient
       id="linearGradient3380">
      <stop
         id="stop3382"
         offset="0"
         style="stop-color:#000000;stop-opacity:1" />
      <stop
         id="stop3384"
         offset="1"
         style="stop-color:#ffffff;stop-opacity:1;" />
    </linearGradient>
    <radialGradient
       xlink:href="#linearGradient2456"
       r="13.804391"
       inkscape:collect="always"
       id="radialGradient2462"
       gradientUnits="userSpaceOnUse"
       gradientTransform="scale(1.164226,0.85894)"
       fy="47.400623"
       fx="28.283663"
       cy="47.400623"
       cx="28.283663" />
    <linearGradient
       y2="99.2984"
       y1="82.0938"
       xlink:href="#aigrd13"
       x2="118.302"
       x1="97.2412"
       inkscape:collect="always"
       id="linearGradient1691"
       gradientUnits="userSpaceOnUse" />
    <linearGradient
       y2="100.6528"
       y1="89.1104"
       xlink:href="#aigrd12"
       x2="115.5175"
       x1="90.8311"
       inkscape:collect="always"
       id="linearGradient1689"
       gradientUnits="userSpaceOnUse" />
    <linearGradient
       y2="92.6123"
       y1="75.1099"
       xlink:href="#aigrd11"
       x2="124.8197"
       x1="105.0923"
       inkscape:collect="always"
       id="linearGradient1687"
       gradientUnits="userSpaceOnUse" />
    <linearGradient
       y2="94.8"
       y1="84.7578"
       xlink:href="#aigrd10"
       x2="126.1107"
       x1="107.8672"
       inkscape:collect="always"
       id="linearGradient1685"
       gradientUnits="userSpaceOnUse" />
    <linearGradient
       y2="95.8999"
       y1="78.1079"
       xlink:href="#aigrd9"
       x2="118.2002"
       x1="105.8184"
       inkscape:collect="always"
       id="linearGradient1683"
       gradientUnits="userSpaceOnUse" />
    <linearGradient
       y2="98.8832"
       y1="81.1763"
       xlink:href="#aigrd8"
       x2="118.3481"
       x1="106.0254"
       inkscape:collect="always"
       id="linearGradient1681"
       gradientUnits="userSpaceOnUse" />
    <linearGradient
       y2="98.8832"
       y1="81.1763"
       x2="118.3481"
       x1="106.0254"
       id="aigrd8"
       gradientUnits="userSpaceOnUse">
      <stop
         style="stop-color:#C09287"
         offset="0"
         id="stop12960" />
      <stop
         style="stop-color:#803926"
         offset="1"
         id="stop12962" />
    </linearGradient>
    <linearGradient
       y2="95.8999"
       y1="78.1079"
       x2="118.2002"
       x1="105.8184"
       id="aigrd9"
       gradientUnits="userSpaceOnUse">
      <stop
         style="stop-color:#C1553A"
         offset="0"
         id="stop12967" />
      <stop
         style="stop-color:#803926"
         offset="1"
         id="stop12969" />
    </linearGradient>
    <linearGradient
       y2="94.8"
       y1="84.7578"
       x2="126.1107"
       x1="107.8672"
       id="aigrd10"
       gradientUnits="userSpaceOnUse">
      <stop
         style="stop-color:#2C7894"
         offset="0"
         id="stop12974" />
      <stop
         style="stop-color:#0E3D47"
         offset="1"
         id="stop12976" />
    </linearGradient>
    <linearGradient
       y2="92.6123"
       y1="75.1099"
       x2="124.8197"
       x1="105.0923"
       id="aigrd11"
       gradientUnits="userSpaceOnUse">
      <stop
         style="stop-color:#3FA6CC"
         offset="0"
         id="stop12981" />
      <stop
         style="stop-color:#00687A"
         offset="1"
         id="stop12983" />
    </linearGradient>
    <linearGradient
       y2="100.6528"
       y1="89.1104"
       x2="115.5175"
       x1="90.8311"
       id="aigrd12"
       gradientUnits="userSpaceOnUse">
      <stop
         style="stop-color:#E8F066"
         offset="0"
         id="stop12988" />
      <stop
         style="stop-color:#777A34"
         offset="1"
         id="stop12990" />
    </linearGradient>
    <linearGradient
       y2="99.2984"
       y1="82.0938"
       x2="118.302"
       x1="97.2412"
       id="aigrd13"
       gradientUnits="userSpaceOnUse">
      <stop
         style="stop-color:#E8F066"
         offset="0"
         id="stop12995" />
      <stop
         style="stop-color:#949941"
         offset="1"
         id="stop12997" />
    </linearGradient>
    <radialGradient
       xlink:href="#linearGradient15662-4"
       r="38.158695"
       inkscape:collect="always"
       id="radialGradient15668-5"
       gradientUnits="userSpaceOnUse"
       gradientTransform="matrix(0.974777,0,0,1.034091,3.161873,0.559274)"
       fy="7.2678967"
       fx="8.1435566"
       cy="7.2678967"
       cx="8.1435566" />
    <linearGradient
       id="linearGradient15662-4">
      <stop
         style="stop-color:#ffffff;stop-opacity:1.0000000;"
         offset="0.0000000"
         id="stop15664-9" />
      <stop
         style="stop-color:#f8f8f8;stop-opacity:1.0000000;"
         offset="1.0000000"
         id="stop15666-1" />
    </linearGradient>
    <radialGradient
       xlink:href="#linearGradient259-8"
       r="86.708450"
       inkscape:collect="always"
       id="radialGradient15658-4"
       gradientUnits="userSpaceOnUse"
       gradientTransform="matrix(0.963839,0,0,1.043088,-0.124825,-0.15197)"
       fy="35.736916"
       fx="33.966679"
       cy="35.736916"
       cx="33.966679" />
    <linearGradient
       id="linearGradient259-8">
      <stop
         style="stop-color:#fafafa;stop-opacity:1.0000000;"
         offset="0.0000000"
         id="stop260-7" />
      <stop
         style="stop-color:#bbbbbb;stop-opacity:1.0000000;"
         offset="1.0000000"
         id="stop261-7" />
    </linearGradient>
    <radialGradient
       xlink:href="#linearGradient269-7"
       r="37.751713"
       inkscape:collect="always"
       id="radialGradient15656-7"
       gradientUnits="userSpaceOnUse"
       gradientTransform="matrix(0.971646,0,0,1.034707,3.240408,0.495684)"
       fy="3.7561285"
       fx="8.8244190"
       cy="3.7561285"
       cx="8.8244190" />
    <linearGradient
       id="linearGradient269-7">
      <stop
         style="stop-color:#a3a3a3;stop-opacity:1.0000000;"
         offset="0.0000000"
         id="stop270-1" />
      <stop
         style="stop-color:#4c4c4c;stop-opacity:1.0000000;"
         offset="1.0000000"
         id="stop271-8" />
    </linearGradient>
    <linearGradient
       inkscape:collect="always"
       id="linearGradient2456">
      <stop
         style="stop-color:#000000;stop-opacity:1;"
         offset="0"
         id="stop2458" />
      <stop
         style="stop-color:#000000;stop-opacity:0;"
         offset="1"
         id="stop2460" />
    </linearGradient>
    <radialGradient
       xlink:href="#linearGradient4542-7"
       r="15.821514"
       inkscape:collect="always"
       id="radialGradient4548-1"
       gradientUnits="userSpaceOnUse"
       gradientTransform="matrix(1.000000,0.000000,0.000000,0.284916,-2.846681e-15,30.08928)"
       fy="42.07798"
       fx="24.306795"
       cy="42.07798"
       cx="24.306795" />
    <linearGradient
       inkscape:collect="always"
       id="linearGradient4542-7">
      <stop
         style="stop-color:#000000;stop-opacity:1;"
         offset="0"
         id="stop4544-8" />
      <stop
         style="stop-color:#000000;stop-opacity:0;"
         offset="1"
         id="stop4546-4" />
    </linearGradient>
    <linearGradient
       y2="33.016045"
       y1="18.516047"
       xlink:href="#linearGradient6699"
       x2="-14.360273"
       x1="-22.976406"
       inkscape:collect="always"
       id="linearGradient6738"
       gradientUnits="userSpaceOnUse" />
    <linearGradient
       id="linearGradient6699">
      <stop
         style="stop-color:#ff7171;stop-opacity:1.0000000;"
         offset="0.0000000"
         id="stop6701" />
      <stop
         style="stop-color:#cc0000;stop-opacity:1.0000000;"
         offset="1.0000000"
         id="stop6703" />
    </linearGradient>
    <linearGradient
       y2="28.195539"
       y1="24.453547"
       xlink:href="#linearGradient6711"
       x2="-9.7352734"
       x1="-16.387411"
       inkscape:collect="always"
       id="linearGradient6740"
       gradientUnits="userSpaceOnUse" />
    <linearGradient
       id="linearGradient6711">
      <stop
         style="stop-color:#5b8ccb;stop-opacity:1.0000000;"
         offset="0.0000000"
         id="stop6713" />
      <stop
         style="stop-color:#3465a4;stop-opacity:1.0000000;"
         offset="1.0000000"
         id="stop6715" />
    </linearGradient>
    <linearGradient
       y2="25.015009"
       y1="30.827509"
       xlink:href="#linearGradient6719"
       x2="-20.821646"
       x1="-17.863041"
       inkscape:collect="always"
       id="linearGradient6742"
       gradientUnits="userSpaceOnUse" />
    <linearGradient
       id="linearGradient6719">
      <stop
         style="stop-color:#73d216;stop-opacity:1;"
         offset="0"
         id="stop6721" />
      <stop
         style="stop-color:#d5f7b3;stop-opacity:1.0000000;"
         offset="1.0000000"
         id="stop6723" />
    </linearGradient>
    <linearGradient
       y2="18.750000"
       y1="29.000000"
       xlink:href="#linearGradient6687"
       x2="-19.500000"
       x1="-20.750000"
       inkscape:collect="always"
       id="linearGradient6744"
       gradientUnits="userSpaceOnUse" />
    <linearGradient
       inkscape:collect="always"
       id="linearGradient6687">
      <stop
         style="stop-color:#ffffff;stop-opacity:1;"
         offset="0"
         id="stop6689" />
      <stop
         style="stop-color:#ffffff;stop-opacity:0;"
         offset="1"
         id="stop6691" />
    </linearGradient>
    <linearGradient
       y2="18.750000"
       y1="29.000000"
       xlink:href="#linearGradient6687"
       x2="-19.500000"
       x1="-20.750000"
       inkscape:collect="always"
       id="linearGradient6746"
       gradientUnits="userSpaceOnUse" />
    <linearGradient
       y2="609.50507"
       y1="366.64789"
       xlink:href="#linearGradient5048-5"
       x2="302.85715"
       x1="302.85715"
       inkscape:collect="always"
       id="linearGradient6715-6"
       gradientUnits="userSpaceOnUse"
       gradientTransform="matrix(2.774389,0,0,1.969706,-1892.179,-872.8854)" />
    <linearGradient
       id="linearGradient5048-5">
      <stop
         style="stop-color:black;stop-opacity:0;"
         offset="0"
         id="stop5050-2" />
      <stop
         style="stop-color:black;stop-opacity:1;"
         offset="0.5"
         id="stop5056-2" />
      <stop
         style="stop-color:black;stop-opacity:0;"
         offset="1"
         id="stop5052-6" />
    </linearGradient>
    <radialGradient
       xlink:href="#linearGradient5060-1"
       r="117.14286"
       inkscape:collect="always"
       id="radialGradient6717-3"
       gradientUnits="userSpaceOnUse"
       gradientTransform="matrix(2.774389,0,0,1.969706,-1891.633,-872.8854)"
       fy="486.64789"
       fx="605.71429"
       cy="486.64789"
       cx="605.71429" />
    <linearGradient
       inkscape:collect="always"
       id="linearGradient5060-1">
      <stop
         style="stop-color:black;stop-opacity:1;"
         offset="0"
         id="stop5062-8" />
      <stop
         style="stop-color:black;stop-opacity:0;"
         offset="1"
         id="stop5064-8" />
    </linearGradient>
    <radialGradient
       xlink:href="#linearGradient5060-1"
       r="117.14286"
       inkscape:collect="always"
       id="radialGradient6719-4"
       gradientUnits="userSpaceOnUse"
       gradientTransform="matrix(-2.774389,0,0,1.969706,112.7623,-872.8854)"
       fy="486.64789"
       fx="605.71429"
       cy="486.64789"
       cx="605.71429" />
    <inkscape:perspective
       sodipodi:type="inkscape:persp3d"
       inkscape:vp_z="48 : 24 : 1"
       inkscape:vp_y="0 : 1000 : 0"
       inkscape:vp_x="0 : 24 : 1"
       inkscape:persp3d-origin="24 : 16 : 1"
       id="perspective114" />
  </defs>
  <sodipodi:namedview
     bordercolor="#666666"
     borderopacity="0.25490196"
     fill="#729fcf"
     id="base"
     inkscape:current-layer="layer5"
     inkscape:cx="101.29088"
     inkscape:cy="26.954279"
     inkscape:document-units="px"
     inkscape:grid-bbox="true"
     inkscape:pageopacity="0.0"
     inkscape:pageshadow="2"
     inkscape:showpageshadow="false"
     inkscape:window-height="1058"
     inkscape:window-width="1920"
     inkscape:window-x="0"
     inkscape:window-y="0"
     inkscape:zoom="5.6568543"
     pagecolor="#ffffff"
     showgrid="false"
     showguides="true"
     inkscape:guide-bbox="true"
     inkscape:window-maximized="1">
    <sodipodi:guide
       orientation="0,1"
       position="19.925781,44.855469"
       id="guide4597" />
    <sodipodi:guide
       orientation="1,0"
       position="6.1015625,41.101563"
       id="guide4599" />
  </sodipodi:namedview>
  <g
     id="layer6"
     inkscape:groupmode="layer"
     inkscape:label="Shadow"
     style="display:inline" />
  <g
     id="layer1"
     inkscape:groupmode="layer"
     inkscape:label="Base"
     style="display:inline" />
  <g
     id="layer5"
     inkscape:groupmode="layer"
     inkscape:label="Text"
     style="display:inline">
    <g
       id="g4554"
       transform="translate(0.09982204,0.14711593)">
      <g
         style="display:inline"
         inkscape:label="Layer 1"
         id="layer1-5">
        <g
           transform="matrix(0.02144924,0,0,0.02086758,43.32772,41.1536)"
           style="display:inline"
           id="g6707-8">
          <rect
             y="-150.69685"
             x="-1559.2523"
             width="1339.6335"
             style="opacity:0.40206185;color:#000000;fill:url(#linearGradient6715-6);fill-opacity:1;fill-rule:nonzero;stroke:none;stroke-width:1;marker:none;visibility:visible;display:inline;overflow:visible"
             id="rect6709-2"
             height="478.35718" />
          <path
             style="opacity:0.40206185;color:#000000;fill:url(#radialGradient6717-3);fill-opacity:1;fill-rule:nonzero;stroke:none;stroke-width:1;marker:none;visibility:visible;display:inline;overflow:visible"
             sodipodi:nodetypes="cccc"
             id="path6711-9"
             d="m -219.61876,-150.68038 c 0,0 0,478.33079 0,478.33079 142.874166,0.90045 345.40022,-107.16966 345.40014,-239.196175 0,-132.026537 -159.436816,-239.134595 -345.40014,-239.134615 z"
             inkscape:connector-curvature="0" />
          <path
             style="opacity:0.40206185;color:#000000;fill:url(#radialGradient6719-4);fill-opacity:1;fill-rule:nonzero;stroke:none;stroke-width:1;marker:none;visibility:visible;display:inline;overflow:visible"
             sodipodi:nodetypes="cccc"
             id="path6713-8"
             d="m -1559.2523,-150.68038 c 0,0 0,478.33079 0,478.33079 -142.8742,0.90045 -345.4002,-107.16966 -345.4002,-239.196175 0,-132.026537 159.4368,-239.134595 345.4002,-239.134615 z"
             inkscape:connector-curvature="0" />
        </g>
        <rect
           y="3.5013213"
           x="6.5017405"
           width="34.996506"
           style="color:#000000;fill:url(#radialGradient15658-4);fill-opacity:1;fill-rule:nonzero;stroke:url(#radialGradient15656-7);stroke-width:0.9999997;stroke-linecap:round;stroke-linejoin:round;stroke-miterlimit:4;stroke-opacity:1;stroke-dashoffset:0;marker:none;visibility:visible;display:block;overflow:visible"
           ry="1.1490481"
           rx="1.1490482"
           id="rect15391-2"
           height="40.997345" />
        <rect
           y="4.5018268"
           x="7.5033512"
           width="32.996056"
           style="color:#000000;fill:none;stroke:url(#radialGradient15668-5);stroke-width:0.9999997;stroke-linecap:round;stroke-linejoin:round;stroke-miterlimit:4;stroke-opacity:1;stroke-dashoffset:0;marker:none;visibility:visible;display:block;overflow:visible"
           ry="0.14904855"
           rx="0.14904846"
           id="rect15660-0"
           height="38.996326" />
        <path
           style="color:#000000;fill:#000000;fill-opacity:0.21052629;fill-rule:evenodd;stroke:none;stroke-width:0.60787594;marker:none;visibility:visible;display:inline;overflow:visible"
           sodipodi:nodetypes="cccccccc"
           id="rect13655"
           d="m 10,6.002203 0,4.964094 0,30.035906 L 20,41 l 0,-30 18,0 0,-4.997797 -28,0 z"
           inkscape:connector-curvature="0" />
        <path
           style="fill:#000000;fill-opacity:0.15789472;fill-rule:evenodd;stroke:#000000;stroke-width:1.00000012px;stroke-linecap:square;stroke-linejoin:miter;stroke-opacity:0.19298245"
           id="path13660"
           d="m 37.500415,10.502203 -27.000832,0"
           inkscape:connector-curvature="0" />
        <path
           style="fill:#000000;fill-opacity:0.15789472;fill-rule:evenodd;stroke:#000000;stroke-width:0.9999997px;stroke-linecap:square;stroke-linejoin:miter;stroke-opacity:0.19298245"
           id="path13662"
           d="m 37.500755,16.5 -27.001525,0"
           inkscape:connector-curvature="0" />
        <path
           style="fill:#000000;fill-opacity:0.15789472;fill-rule:evenodd;stroke:#000000;stroke-width:0.9999997px;stroke-linecap:square;stroke-linejoin:miter;stroke-opacity:0.19298245"
           id="path13664"
           d="m 37.500755,22.5 -27.001525,0"
           inkscape:connector-curvature="0" />
        <path
           style="fill:#000000;fill-opacity:0.15789472;fill-rule:evenodd;stroke:#000000;stroke-width:0.9999997px;stroke-linecap:square;stroke-linejoin:miter;stroke-opacity:0.19298245"
           id="path13666"
           d="m 37.500755,28.5 -27.001525,0"
           inkscape:connector-curvature="0" />
        <path
           style="fill:#000000;fill-opacity:0.15789472;fill-rule:evenodd;stroke:#000000;stroke-width:0.99999964px;stroke-linecap:square;stroke-linejoin:miter;stroke-opacity:0.19298245"
           id="path13668"
           d="m 37.501332,34.5 -27.001509,0"
           inkscape:connector-curvature="0" />
        <path
           style="fill:#000000;fill-opacity:0.15789472;fill-rule:evenodd;stroke:#000000;stroke-width:0.9999997px;stroke-linecap:square;stroke-linejoin:miter;stroke-opacity:0.19298245"
           id="path13682"
           d="m 37.500755,40.5 -27.001525,0"
           inkscape:connector-curvature="0" />
        <path
           style="fill:#000000;fill-opacity:0.15789472;fill-rule:evenodd;stroke:#000000;stroke-width:1.00000012px;stroke-linecap:square;stroke-linejoin:miter;stroke-opacity:0.19298245"
           id="path2464"
           d="M 37.511644,13.5 10.5,13.5"
           inkscape:connector-curvature="0" />
        <path
           style="fill:none;stroke:#000000;stroke-width:0.9999997px;stroke-linecap:square;stroke-linejoin:miter;stroke-opacity:0.19298245"
           id="path2466"
           d="m 37.500755,19.5 -27.001525,0"
           inkscape:connector-curvature="0" />
        <path
           style="fill:#000000;fill-opacity:0.15789472;fill-rule:evenodd;stroke:#000000;stroke-width:0.9999997px;stroke-linecap:square;stroke-linejoin:miter;stroke-opacity:0.19298245"
           id="path2468"
           d="m 37.500755,25.5 -27.001525,0"
           inkscape:connector-curvature="0" />
        <path
           style="fill:#000000;fill-opacity:0.15789472;fill-rule:evenodd;stroke:#000000;stroke-width:0.9999997px;stroke-linecap:square;stroke-linejoin:miter;stroke-opacity:0.19298245"
           id="path2470"
           d="m 37.500755,31.5 -27.001525,0"
           inkscape:connector-curvature="0" />
        <path
           style="fill:#000000;fill-opacity:0.15789472;fill-rule:evenodd;stroke:#000000;stroke-width:0.9999997px;stroke-linecap:square;stroke-linejoin:miter;stroke-opacity:0.19298245"
           id="path2472"
           d="m 37.500755,37.5 -27.001525,0"
           inkscape:connector-curvature="0" />
        <path
           style="fill:none;stroke:#000000;stroke-width:0.99999982px;stroke-linecap:square;stroke-linejoin:miter;stroke-opacity:0.15789472"
           id="path2485"
           d="M 37.5,6.4997386 37.5,40.5003"
           inkscape:connector-curvature="0" />
        <path
           style="fill:none;stroke:#000000;stroke-width:1px;stroke-linecap:square;stroke-linejoin:miter;stroke-opacity:0.15789472"
           id="path2487"
           d="m 31.5,6.4996867 0,34.0006283"
           inkscape:connector-curvature="0" />
        <path
           style="fill:none;stroke:#000000;stroke-width:1px;stroke-linecap:square;stroke-linejoin:miter;stroke-opacity:0.15789472"
           id="path2489"
           d="m 25.5,6.4996865 0,34.0006275"
           inkscape:connector-curvature="0" />
        <path
           style="fill:none;stroke:#000000;stroke-width:1px;stroke-linecap:square;stroke-linejoin:miter;stroke-opacity:0.15789472"
           id="path2491"
           d="m 19.5,6.4996867 0,34.0006283"
           inkscape:connector-curvature="0" />
        <path
           style="fill:none;stroke:#000000;stroke-width:1px;stroke-linecap:square;stroke-linejoin:miter;stroke-opacity:0.15789472"
           id="path2493"
           d="m 10.5,6.4996867 0,34.0006283"
           inkscape:connector-curvature="0" />
        <path
           style="fill:#000000;fill-opacity:0.15789472;fill-rule:evenodd;stroke:#000000;stroke-width:0.99999994px;stroke-linecap:square;stroke-linejoin:miter;stroke-opacity:0.19298245"
           id="path2495"
           d="m 37.500227,6.502203 -27.000767,0"
           inkscape:connector-curvature="0" />
      </g>
      <g
         style="display:inline"
         inkscape:label="emblem"
         id="layer2">
        <path
           transform="matrix(0.861667,0,0,0.851476,3.760476,2.091696)"
           style="fill:url(#radialGradient2462);fill-opacity:1;fill-rule:evenodd;stroke:none"
           sodipodi:type="arc"
           sodipodi:ry="11.857142"
           sodipodi:rx="16.071428"
           sodipodi:cy="40.714287"
           sodipodi:cx="32.92857"
           id="path1693"
           d="m 48.999998,40.714287 c 0,6.548519 -7.195423,11.857142 -16.071428,11.857142 -8.876005,0 -16.071429,-5.308623 -16.071429,-11.857142 0,-6.548519 7.195424,-11.857143 16.071429,-11.857143 8.876005,0 16.071428,5.308624 16.071428,11.857143 z" />
        <g
           transform="translate(51,9.12499)"
           inkscape:r_cy="true"
           inkscape:r_cx="true"
           id="g6727">
          <path
             style="fill:#670000;fill-opacity:1;fill-rule:nonzero;stroke:none"
             inkscape:r_cy="true"
             inkscape:r_cx="true"
             id="path3931"
             d="m -27.528542,18.092794 c -2.569034,1.698331 -3.982933,4.005039 -3.982933,6.497902 l 0,2.069292 c 0,2.49084 1.413899,4.798223 3.982933,6.496553 2.426489,1.603904 5.633126,2.487468 9.029183,2.487468 3.394772,0 6.601409,-0.883564 9.0291816,-2.487468 2.5677499,-1.69833 3.9816497,-4.005038 3.9816497,-6.496553 l 0,-2.069292 c 0,-2.492863 -1.4145419,-4.800246 -3.9816497,-6.497902 -2.4271306,-1.602555 -5.6337676,-2.486793 -9.0291816,-2.486793 -3.396057,0 -6.602694,0.884238 -9.029183,2.486793 z"
             inkscape:connector-curvature="0" />
          <path
             style="fill:#a40000;fill-rule:nonzero;stroke:none"
             inkscape:r_cy="true"
             inkscape:r_cx="true"
             id="path3933"
             d="m -7.0244261,24.453547 c -1.3785844,-3.386544 -6.0530579,-5.880082 -11.6123419,-5.880082 -5.559285,0 -10.233758,2.493538 -11.612343,5.880082 l -0.414795,0 0,2.069967 c 0,4.390164 5.385276,7.948699 12.027138,7.948699 6.642503,0 12.0264951,-3.558535 12.0264951,-7.948699 l 0,-2.069967 -0.4141532,0 0,0 z"
             inkscape:connector-curvature="0" />
          <path
             style="fill:url(#linearGradient6738);fill-opacity:1;fill-rule:nonzero;stroke:none"
             inkscape:r_cy="true"
             inkscape:r_cx="true"
             id="path3935"
             d="m -6.6102729,24.453547 c 0,4.390838 -5.3839921,7.949374 -12.0264951,7.949374 -6.642504,0 -12.027138,-3.558536 -12.027138,-7.949374 0,-4.390839 5.385276,-7.949374 12.027138,-7.949374 6.642503,0 12.0264951,3.558535 12.0264951,7.949374 l 0,0 z"
             inkscape:connector-curvature="0" />
          <path
             style="fill:#204a87;fill-rule:nonzero;stroke:none"
             inkscape:r_cy="true"
             inkscape:r_cx="true"
             id="path3937"
             d="m -6.6102729,26.833098 -0.01541,-2.166417 c -1.304101,4.500778 -4.2365631,6.407522 -7.9234901,7.340997 l 0,1.994425 c 3.990639,-1.00362 7.561989,-3.288745 7.9389005,-7.169005 l 0,0 z"
             inkscape:connector-curvature="0" />
          <path
             style="fill:url(#linearGradient6740);fill-opacity:1;fill-rule:nonzero;stroke:none"
             inkscape:r_cy="true"
             inkscape:r_cx="true"
             id="path3939"
             d="m -6.6102729,24.453547 c -0.27546,5.079478 -6.5577471,7.395629 -7.9613731,7.483985 l -4.065765,-7.483985 12.026496,0 6.421e-4,0 z"
             inkscape:connector-curvature="0" />
          <path
             style="fill:#4e9a06;fill-rule:nonzero;stroke:none"
             inkscape:r_cy="true"
             inkscape:r_cx="true"
             id="path3941"
             d="m -21.154435,34.298198 0,-2.069292 c 2.263396,0.294746 4.339941,0.346681 6.582789,-0.213809 l 0.02247,1.987681 c -1.87942,0.616471 -4.819587,0.645473 -6.605262,0.296095 l 0,-6.75e-4 z"
             inkscape:connector-curvature="0" />
          <path
             style="fill:url(#linearGradient6742);fill-opacity:1;fill-rule:nonzero;stroke:none"
             inkscape:r_cy="true"
             inkscape:r_cx="true"
             id="path3943"
             d="m -18.637411,24.454221 4.065765,7.483311 c -2.489414,0.948988 -6.582789,0.291374 -6.582789,0.291374 l 2.517024,-7.774685 z"
             inkscape:connector-curvature="0" />
          <path
             transform="matrix(0.979592,0,0,0.979592,-0.380102,0.497449)"
             style="opacity:0.31111115;color:#000000;fill:none;stroke:url(#linearGradient6744);stroke-width:1.02083337;stroke-linecap:butt;stroke-linejoin:miter;stroke-miterlimit:4;stroke-opacity:1;stroke-dasharray:none;stroke-dashoffset:0;marker:none;visibility:visible;display:block;overflow:visible"
             sodipodi:type="arc"
             sodipodi:ry="7.75"
             sodipodi:rx="11.75"
             sodipodi:cy="24.375"
             sodipodi:cx="-18.625"
             inkscape:r_cy="true"
             inkscape:r_cx="true"
             id="path5959"
             d="m -6.875,24.375 c 0,4.280207 -5.260654,7.75 -11.75,7.75 -6.489346,0 -11.75,-3.469793 -11.75,-7.75 0,-4.280207 5.260654,-7.75 11.75,-7.75 6.489346,0 11.75,3.469793 11.75,7.75 z" />
          <path
             transform="matrix(0.979592,0,0,0.979592,-0.380102,2.497449)"
             style="opacity:0.13333327;color:#000000;fill:none;stroke:url(#linearGradient6746);stroke-width:1.02083337;stroke-linecap:butt;stroke-linejoin:miter;stroke-miterlimit:4;stroke-opacity:1;stroke-dasharray:none;stroke-dashoffset:0;marker:none;visibility:visible;display:block;overflow:visible"
             sodipodi:type="arc"
             sodipodi:ry="7.75"
             sodipodi:rx="11.75"
             sodipodi:cy="24.375"
             sodipodi:cx="-18.625"
             inkscape:r_cy="true"
             inkscape:r_cx="true"
             id="path6707"
             d="m -6.875,24.375 c 0,4.280207 -5.260654,7.75 -11.75,7.75 -6.489346,0 -11.75,-3.469793 -11.75,-7.75 0,-4.280207 5.260654,-7.75 11.75,-7.75 6.489346,0 11.75,3.469793 11.75,7.75 z" />
        </g>
      </g>
    </g>
    <g
       id="g3362"
       style="opacity:0.75"
       transform="matrix(0.4249668,0,0,0.4249668,20.951236,5.0308254)">
      <g
         id="g3364"
         inkscape:label="Shadow" />
      <g
         id="g3366"
         inkscape:label="Base"
         style="display:inline" />
      <g
         id="g3368"
         inkscape:label="Text"
         style="display:inline">
        <g
           id="g5362"
           inkscape:label="Shadow"
           transform="translate(-51.501697,-8.1063257)" />
        <g
           id="g5364"
           inkscape:label="Base"
           style="display:inline"
           transform="translate(-51.501697,-8.1063257)" />
        <path
           d="m 6.09375,1.125 c -1.3508962,-1e-7 -2.4375,1.0866035 -2.4375,2.4375 l 0,17.09375 c 0,1.350897 1.0866038,2.4375 2.4375,2.4375 l 9.75,0 c 0.450299,1e-6 0.812502,-0.362202 0.8125,-0.8125 l 0,-2.46875 C 16.656251,19.362203 16.29405,19 15.84375,19 l -6.5,0 c -0.9005973,1e-6 -1.625,-0.724403 -1.625,-1.625 l 0,-10.5625 c 0,-0.9005977 0.7244029,-1.625 1.625,-1.625 l 9.75,0 c 0.900597,-2e-7 1.625,0.7244025 1.625,1.625 l 0,7.3125 c 0,0.450299 0.362202,0.8125 0.8125,0.8125 l 2.4375,0 c 0.450299,0 0.8125,-0.362201 0.8125,-0.8125 l 0,-10.5625 c -1e-6,-1.3508965 -1.086604,-2.4375 -2.4375,-2.4375 l -16.25,0 z M 29.875,8.4375 c -1.350897,-2e-7 -2.4375,1.0866034 -2.4375,2.4375 l 0,3.25 c 1e-6,0.450299 0.362201,0.8125 0.8125,0.8125 l 2.4375,0 c 0.450298,0 0.84375,-0.362201 0.84375,-0.8125 l 0,-0.8125 c 0,-0.450299 0.362202,-0.8125 0.8125,-0.8125 l 4.0625,0 c 0.450299,0 0.8125,0.362201 0.8125,0.8125 l 0,4.875 c 0,0.450299 -0.3622,0.8125 -0.8125,0.8125 -0.4503,0 -0.8125,0.362202 -0.8125,0.8125 l 0,2.4375 c 2e-6,0.450299 0.362201,0.8125 0.8125,0.8125 l 2.4375,0 c 1.350899,0 2.4375,-1.086604 2.4375,-2.4375 l 0,-9.75 c 10e-7,-1.3508963 -1.086603,-2.4375 -2.4375,-2.4375 l -8.96875,0 z M 21.53125,19 c -0.450299,0 -0.8125,0.3622 -0.8125,0.8125 l 0,2.46875 c 0,0.450299 0.3622,0.812499 0.8125,0.8125 l 2.4375,0 c 0.450299,0 0.812499,-0.362201 0.8125,-0.8125 l 0,-2.46875 C 24.78125,19.362201 24.419049,19 23.96875,19 l -2.4375,0 z M 28.25,19 c -0.450299,0 -0.8125,0.362201 -0.8125,0.8125 l 0,2.4375 c 1e-6,0.450299 0.362201,0.8125 0.8125,0.8125 l 2.4375,0 c 0.4503,-1e-6 0.84375,-0.362201 0.84375,-0.8125 l 0,-2.4375 C 31.53125,19.3622 31.137799,19 30.6875,19 L 28.25,19 z M 7.71875,25.875 c -1.350896,-1e-6 -2.4375,1.086603 -2.4375,2.4375 l 0,15.4375 c 1e-7,1.350895 1.0866038,2.4375 2.4375,2.4375 l 14.625,0 c 1.350895,10e-7 2.4375,-1.086604 2.4375,-2.4375 l 0,-8.9375 C 24.78125,34.362202 24.419049,34 23.96875,34 l -2.4375,0 c -0.450297,0 -0.8125,0.362201 -0.8125,0.8125 l 0,5.90625 c 1e-6,0.788024 -0.649477,1.40625 -1.4375,1.40625 l -8.53125,0 c -0.7880228,10e-7 -1.40625,-0.618227 -1.40625,-1.40625 l 0,-9.34375 c -4e-7,-0.788024 0.6182274,-1.4375 1.40625,-1.4375 l 4.875,0 c 0.450301,0 0.8125,-0.362201 0.8125,-0.8125 l 0,-2.4375 c 1e-6,-0.450299 -0.362201,-0.8125 -0.8125,-0.8125 l -7.90625,0 z m 13.8125,0 c -0.450298,1e-6 -0.8125,0.362201 -0.8125,0.8125 l 0,2.4375 c 0,0.4503 0.362201,0.8125 0.8125,0.8125 l 2.4375,0 c 0.450299,0 0.8125,-0.362201 0.8125,-0.8125 l 0,-2.4375 c 1e-6,-0.450299 -0.362201,-0.8125 -0.8125,-0.8125 l -2.4375,0 z M 28.25,25.90625 c -0.450299,0 -0.812499,0.362201 -0.8125,0.8125 l 0,2.4375 c 0,0.450299 0.362201,0.8125 0.8125,0.8125 l 2.4375,0 c 0.450299,0 0.8125,-0.3622 0.8125,-0.8125 l 0,-2.4375 c 0,-0.450299 -0.3622,-0.812499 -0.8125,-0.8125 l -2.4375,0 z m 8.125,0 c -0.450297,0 -0.8125,0.362201 -0.8125,0.8125 l 0,2.4375 c 2e-6,0.450299 0.362201,0.8125 0.8125,0.8125 l 1.625,0 0.8125,0 c 0.450299,0 0.8125,0.362201 0.8125,0.8125 l 0,0.8125 0,5.6875 0,0.8125 c 2e-6,0.450298 -0.362201,0.8125 -0.8125,0.8125 l -0.8125,0 -4.875,0 -0.8125,0 C 31.862202,38.906251 31.5,38.544049 31.5,38.09375 l 0,-0.8125 0,-2.4375 c -1e-6,-0.4503 -0.362201,-0.812499 -0.8125,-0.8125 l -2.4375,0 c -0.450299,-2e-6 -0.8125,0.362203 -0.8125,0.8125 l 0,2.3125 0,3.375 c 0,1.350898 1.086604,2.4375 2.4375,2.4375 l 11.375,0 c 1.350896,10e-7 2.4375,-1.086603 2.4375,-2.4375 l 0,-12.1875 c -10e-7,-1.350898 -1.086604,-2.4375 -2.4375,-2.4375 l -4.875,0 z"
           id="path3825"
           style="fill:none;stroke:#000000;stroke-width:2;stroke-linecap:square;stroke-linejoin:miter;stroke-miterlimit:4;stroke-opacity:1;stroke-dasharray:none"
           inkscape:connector-curvature="0" />
        <path
           d="m 6.09375,1.125 c -1.3508962,-1e-7 -2.4375,1.0866035 -2.4375,2.4375 l 0,17.09375 c 0,1.350897 1.0866038,2.4375 2.4375,2.4375 l 9.75,0 c 0.450299,1e-6 0.812502,-0.362202 0.8125,-0.8125 l 0,-2.46875 C 16.656251,19.362203 16.29405,19 15.84375,19 l -6.5,0 c -0.9005973,1e-6 -1.625,-0.724403 -1.625,-1.625 l 0,-10.5625 c 0,-0.9005977 0.7244029,-1.625 1.625,-1.625 l 9.75,0 c 0.900597,-2e-7 1.625,0.7244025 1.625,1.625 l 0,7.3125 c 0,0.450299 0.362202,0.8125 0.8125,0.8125 l 2.4375,0 c 0.450299,0 0.8125,-0.362201 0.8125,-0.8125 l 0,-10.5625 c -1e-6,-1.3508965 -1.086604,-2.4375 -2.4375,-2.4375 l -16.25,0 z M 29.875,8.4375 c -1.350897,-2e-7 -2.4375,1.0866034 -2.4375,2.4375 l 0,3.25 c 1e-6,0.450299 0.362201,0.8125 0.8125,0.8125 l 2.4375,0 c 0.450298,0 0.84375,-0.362201 0.84375,-0.8125 l 0,-0.8125 c 0,-0.450299 0.362202,-0.8125 0.8125,-0.8125 l 4.0625,0 c 0.450299,0 0.8125,0.362201 0.8125,0.8125 l 0,4.875 c 0,0.450299 -0.3622,0.8125 -0.8125,0.8125 -0.4503,0 -0.8125,0.362202 -0.8125,0.8125 l 0,2.4375 c 2e-6,0.450299 0.362201,0.8125 0.8125,0.8125 l 2.4375,0 c 1.350899,0 2.4375,-1.086604 2.4375,-2.4375 l 0,-9.75 c 10e-7,-1.3508963 -1.086603,-2.4375 -2.4375,-2.4375 l -8.96875,0 z M 21.53125,19 c -0.450299,0 -0.8125,0.3622 -0.8125,0.8125 l 0,2.46875 c 0,0.450299 0.3622,0.812499 0.8125,0.8125 l 2.4375,0 c 0.450299,0 0.812499,-0.362201 0.8125,-0.8125 l 0,-2.46875 C 24.78125,19.362201 24.419049,19 23.96875,19 l -2.4375,0 z M 28.25,19 c -0.450299,0 -0.8125,0.362201 -0.8125,0.8125 l 0,2.4375 c 1e-6,0.450299 0.362201,0.8125 0.8125,0.8125 l 2.4375,0 c 0.4503,-1e-6 0.84375,-0.362201 0.84375,-0.8125 l 0,-2.4375 C 31.53125,19.3622 31.137799,19 30.6875,19 L 28.25,19 z M 7.71875,25.875 c -1.350896,-1e-6 -2.4375,1.086603 -2.4375,2.4375 l 0,15.4375 c 1e-7,1.350895 1.0866038,2.4375 2.4375,2.4375 l 14.625,0 c 1.350895,10e-7 2.4375,-1.086604 2.4375,-2.4375 l 0,-8.9375 C 24.78125,34.362202 24.419049,34 23.96875,34 l -2.4375,0 c -0.450297,0 -0.8125,0.362201 -0.8125,0.8125 l 0,5.90625 c 1e-6,0.788024 -0.649477,1.40625 -1.4375,1.40625 l -8.53125,0 c -0.7880228,10e-7 -1.40625,-0.618227 -1.40625,-1.40625 l 0,-9.34375 c -4e-7,-0.788024 0.6182274,-1.4375 1.40625,-1.4375 l 4.875,0 c 0.450301,0 0.8125,-0.362201 0.8125,-0.8125 l 0,-2.4375 c 1e-6,-0.450299 -0.362201,-0.8125 -0.8125,-0.8125 l -7.90625,0 z m 13.8125,0 c -0.450298,1e-6 -0.8125,0.362201 -0.8125,0.8125 l 0,2.4375 c 0,0.4503 0.362201,0.8125 0.8125,0.8125 l 2.4375,0 c 0.450299,0 0.8125,-0.362201 0.8125,-0.8125 l 0,-2.4375 c 1e-6,-0.450299 -0.362201,-0.8125 -0.8125,-0.8125 l -2.4375,0 z M 28.25,25.90625 c -0.450299,0 -0.812499,0.362201 -0.8125,0.8125 l 0,2.4375 c 0,0.450299 0.362201,0.8125 0.8125,0.8125 l 2.4375,0 c 0.450299,0 0.8125,-0.3622 0.8125,-0.8125 l 0,-2.4375 c 0,-0.450299 -0.3622,-0.812499 -0.8125,-0.8125 l -2.4375,0 z m 8.125,0 c -0.450297,0 -0.8125,0.362201 -0.8125,0.8125 l 0,2.4375 c 2e-6,0.450299 0.362201,0.8125 0.8125,0.8125 l 1.625,0 0.8125,0 c 0.450299,0 0.8125,0.362201 0.8125,0.8125 l 0,0.8125 0,5.6875 0,0.8125 c 2e-6,0.450298 -0.362201,0.8125 -0.8125,0.8125 l -0.8125,0 -4.875,0 -0.8125,0 C 31.862202,38.906251 31.5,38.544049 31.5,38.09375 l 0,-0.8125 0,-2.4375 c -1e-6,-0.4503 -0.362201,-0.812499 -0.8125,-0.8125 l -2.4375,0 c -0.450299,-2e-6 -0.8125,0.362203 -0.8125,0.8125 l 0,2.3125 0,3.375 c 0,1.350898 1.086604,2.4375 2.4375,2.4375 l 11.375,0 c 1.350896,10e-7 2.4375,-1.086603 2.4375,-2.4375 l 0,-12.1875 c -10e-7,-1.350898 -1.086604,-2.4375 -2.4375,-2.4375 l -4.875,0 z"
           id="path3848"
           style="fill:none;stroke:#737373;stroke-width:1;stroke-linecap:square;stroke-linejoin:miter;stroke-miterlimit:4;stroke-opacity:1;stroke-dasharray:none"
           inkscape:connector-curvature="0" />
        <path
           d="m 6.079082,1.1331572 c -1.350896,0 -2.438441,1.0875448 -2.438441,2.4384413 l 0,17.0690895 c 0,1.350897 1.087545,2.438441 2.438441,2.438441 l 9.753766,0 c 0.450299,0 0.812815,-0.362515 0.812813,-0.812813 l 0,-2.438442 c 0,-0.450298 -0.362513,-0.812813 -0.812813,-0.812813 l -6.502512,0 c -0.900597,0 -1.625626,-0.725031 -1.625626,-1.625628 l 0,-10.5665796 c 0,-0.9005975 0.725029,-1.625628 1.625626,-1.625628 l 9.753767,0 c 0.900597,0 1.625627,0.7250305 1.625627,1.625628 l 0,7.3153246 c 0,0.450299 0.362516,0.812814 0.812814,0.812814 l 2.438442,0 c 0.450298,0 0.812813,-0.362515 0.812813,-0.812814 l 0,-10.5665795 c 0,-1.3508965 -1.087545,-2.4384413 -2.438441,-2.4384413 l -16.256276,0 z"
           id="rect3061"
           sodipodi:nodetypes="ccccccccccccccccccccc"
           style="fill:url(#linearGradient2525);fill-opacity:1;fill-rule:nonzero;stroke:none"
           inkscape:connector-curvature="0" />
        <rect
           height="4.0640688"
           id="rect3067"
           rx="0.81281376"
           style="fill:url(#linearGradient2522);fill-opacity:1;fill-rule:nonzero;stroke:none"
           width="4.0640688"
           x="20.70973"
           y="19.015059" />
        <path
           d="m 36.370714,25.892475 c -0.450299,0 -0.812813,0.362515 -0.812813,0.812814 l 0,2.438441 c 0,0.450299 0.362514,0.812813 0.812813,0.812813 l 1.625627,0 0.812814,0 c 0.450299,0 0.812814,0.362515 0.812814,0.812814 l 0,0.812814 0,5.689697 0,0.812813 c 0,0.450299 -0.362515,0.812815 -0.812814,0.812815 l -0.812814,0 -4.876882,0 -0.812814,0 c -0.450299,0 -0.812814,-0.362516 -0.812814,-0.812815 l 0,-0.812813 0,-2.438442 c 0,-0.450299 -0.362514,-0.812812 -0.812813,-0.812813 l -2.438442,0 c -0.450298,0 -0.812814,0.362516 -0.812814,0.812813 l 0,2.33684 0,3.352856 c 0,1.350897 1.087545,2.438442 2.438441,2.438442 l 11.379394,0 c 1.350896,0 2.438441,-1.087545 2.438441,-2.438442 l 0,-12.192205 c 0,-1.350898 -1.087545,-2.438442 -2.438441,-2.438442 l -4.876883,0 z"
           id="rect3075"
           style="fill:url(#linearGradient2519);fill-opacity:1;fill-rule:nonzero;stroke:none"
           inkscape:connector-curvature="0" />
        <rect
           height="4.0640688"
           id="rect3081"
           rx="0.81281376"
           style="fill:url(#linearGradient2516);fill-opacity:1;fill-rule:nonzero;stroke:none"
           transform="scale(-1,-1)"
           width="4.0640688"
           x="-31.49383"
           y="-29.956541" />
        <path
           d="m 7.7141931,25.873176 c -1.3508962,0 -2.4384414,1.087545 -2.4384414,2.438442 l 0,15.443462 c 0,1.350896 1.0875452,2.438441 2.4384414,2.438441 l 14.6306489,0 c 1.350896,0 2.438441,-1.087545 2.438441,-2.438441 l 0,-8.940951 c 0,-0.450298 -0.362515,-0.812814 -0.812814,-0.812814 l -2.438442,0 c -0.450298,1e-6 -0.812813,0.362515 -0.812813,0.812814 l 0,5.892899 c 0,0.788023 -0.634401,1.422425 -1.422424,1.422425 l -8.534545,0 c -0.7880226,0 -1.4224236,-0.634402 -1.4224236,-1.422425 l 0,-9.347358 c 0,-0.788023 0.634401,-1.422424 1.4224236,-1.422424 l 4.876883,0 c 0.450301,0 0.812814,-0.362515 0.812814,-0.812814 l 0,-2.438441 c 1e-6,-0.450299 -0.362515,-0.812815 -0.812814,-0.812815 l -7.9249349,0 z"
           id="rect3096"
           sodipodi:nodetypes="ccccccccccccccccccccc"
           style="fill:url(#linearGradient2513);fill-opacity:1;fill-rule:nonzero;stroke:none"
           inkscape:connector-curvature="0" />
        <rect
           height="4.0640688"
           id="rect3102"
           rx="0.81281376"
           style="fill:url(#linearGradient2510);fill-opacity:1;fill-rule:nonzero;stroke:none"
           transform="scale(1,-1)"
           width="4.0640688"
           x="20.719212"
           y="-29.937243" />
        <path
           d="m 29.890239,8.4380262 c -1.350896,0 -2.438441,1.0875452 -2.438441,2.4384418 l 0,3.251256 c 0,0.450299 0.362514,0.812814 0.812813,0.812814 l 2.438441,0 c 0.450299,0 0.812815,-0.362515 0.812815,-0.812814 l 0,-0.812814 c 0,-0.450299 0.362515,-0.812814 0.812813,-0.812814 l 4.064069,0 c 0.4503,0 0.812814,0.362515 0.812814,0.812814 l 0,4.876882 c 0,0.450299 -0.362514,0.812814 -0.812814,0.812814 -0.450299,0 -0.812814,0.362516 -0.812814,0.812814 l 0,2.438442 c 0,0.450298 0.362515,0.812813 0.812814,0.812813 l 2.438441,0 c 1.350897,-10e-7 2.438441,-1.087545 2.438441,-2.438441 l 0,-9.753766 c 0,-1.3508966 -1.087544,-2.4384418 -2.438441,-2.4384418 l -8.940951,0 z"
           id="rect3118"
           sodipodi:nodetypes="cccccccccccscccccccc"
           style="fill:url(#linearGradient2507);fill-opacity:1;fill-rule:nonzero;stroke:none"
           inkscape:connector-curvature="0" />
        <rect
           height="4.0640688"
           id="rect3124"
           rx="0.81281376"
           style="fill:url(#linearGradient2504);fill-opacity:1;fill-rule:nonzero;stroke:none"
           transform="scale(-1,1)"
           width="4.0640688"
           x="-31.515863"
           y="19.004602" />
      </g>
    </g>
  </g>
</svg>
